…
~~~
> select(villages %>% arrange(-total_vals), village, total_vals)
# A tibble: 428 x 2
   village                      total_vals
   <chr>                                <int>
 1 Zona Castellana                        178
 2 Zona Recoletos                         173
 3 Zona Universidad-Malasaña              167
 4 Zona Embajadores-Lavapiés              130
 5 Zona Justicia-Chueca                   130
 6 Zona Almagro                           119
 7 Zona Lista                             117
 8 Zona Argüelles                         107
 9 Zona Goya                              100
10 Zona Hispanoamérica-Bernabéu            96
# … with 418 more rows
> select(villages %>% arrange(-price_avg), village, price_avg)
# A tibble: 428 x 2
   village                              price_avg
   <chr>                                       <dbl>
 1 Pedrezuela                                112950 
 2 Zona Nueva España                          23240.
 3 Zona La Moraleja                            8307.
 4 Zona La Finca                               8259.
 5 Zona Monteclaro                             6675 
 6 Zona El Plantío                             6125.
 7 Carabaña                                    6000 
 8 Zona La Pizarra                             6000 
 9 Zona Urbanización Este-Montepríncipe        5663.
10 Zona Montealina                             5221.
# … with 418 more rows
> select(villages %>% arrange(price_avg), village, price_avg)
# A tibble: 428 x 2
   village             price_avg
   <chr>                      <dbl>
 1 Cervera de Buitrago         340 
 2 Tielmes                     348.
 3 Valdeavero                  400 
 4 Bustarviejo                 425 
 5 Corpa                       425 
 6 Batres                      450 
 7 Pelayos de la Presa         540 
 8 Puentes Viejas              550 
 9 Titulcia                    550 
10 Redueña                     568.
# … with 418 more rows
> select(villages %>% arrange(-surface_avg), village, surface_avg)
# A tibble: 428 x 2
   village                              surface_avg
   <chr>                                           <dbl>
 1 Zona Club de Golf                                796 
 2 Cabanillas de la Sierra                          750 
 3 Ciudalcampo                                      608.
 4 Zona La Finca                                    600.
 5 Madrid                                           600 
 6 Zona Urbanización Este-Montepríncipe             534 
 7 Zona Las Lomas                                   525.
 8 Zona Bonanza                                     524 
 9 Zona La Pizarra                                  500 
10 Zona Los Robles                                  452 
# … with 418 more rows
~~~



~~~
> select(companies %>% arrange(-total_vals), company, total_vals)
# A tibble: 1,036 x 2
   company                                          total_vals
   <chr>                                                    <int>
 1 NA                                                         488
 2 SERVICHECK (VALLECAS)                                      488
 3 INMOBILIARIA EMMANUEL                                      235
 4 aProperties                                                188
 5 Consultoría Inmobiliaria Internacional de Madrid           142
 6 DEAL INMOBILIARIA                                          117
 7 OUTLETDEVIVIENDAS                                          111
 8 RENTA GARANTIZADA - UMBER                                   90
 9 TESTA RESIDENCIAL                                           80
10 SOLFAI CONSULTING                                           77
# … with 1,026 more rows
> select(companies %>% arrange(-price_avg), company, precio_media)
# A tibble: 1,036 x 2
   company                                  price_avg
   <chr>                                           <dbl>
 1 REDPISO LAS TABLAS                            113432.
 2 INMOBILIARIA EMMANUEL                          10105.
 3 COLDWELL BANKER GLOBAL LUXURY ZAROSAN           9280 
 4 Vive Home Style                                 7371.
 5 ARRAS CONSULTORIA INMOBILIARIA                  7300 
 6 MADRID TEAM SL                                  7057.
 7 VOHOME CENTRAL                                  6900 
 8 GESTION MADRID                                  6850 
 9 ALFEREZ REAL ESTATE                             6250 
10 Berkashire Hathaway Home Services Larvia        6112.
# … with 1,026 more rows
> select(companies %>% arrange(price_avg), company, price_avg)
# A tibble: 1,036 x 2
   company                         price_avg
   <chr>                                  <dbl>
 1 INMOBILIARIA PULPON                     200 
 2 HOUSE FM                                300 
 3 DP 2020 GESTIONES INMOBILIARIAS         320 
 4 DISTRITO GETAFE I                       350 
 5 RED IN                                  390 
 6 ABANTOS ( ISABEL BEATRIZ )              412.
 7 CARIHUELA SOL                           450 
 8 GCI                                     450 
 9 CASA SERVICIOS INMOBILIARIOS            488.
10 BARCHAN                                 500 
# … with 1,026 more rows
> select(companies %>% arrange(-surface_avg), company, surface_avg)
# A tibble: 1,036 x 2
   company                                  surface_avg
   <chr>                                               <dbl>
 1 LÍNEA DE GESTIÓN 2, S.A.                             600 
 2 MIRANDA SERVICIOS INMOBILIARIOS.                     546.
 3 MIRAMADRID GRUPO                                     544 
 4 Rester Iberia                                        500.
 5 GESTION MADRID                                       500 
 6 Berkashire Hathaway Home Services Larvia             495.
 7 DOMUS VENDI                                          480 
 8 HOUSING4YOU                                          455 
 9 Mg Grupo Inmobiliario                                452 
10 2MP                                                  450 
# … with 1,026 more rows
…
